1501943511194	geckodriver	INFO	geckodriver 0.18.0
1501943511201	geckodriver	INFO	Listening on 127.0.0.1:50167
1501943525013	geckodriver	INFO	geckodriver 0.18.0
1501943525017	geckodriver	INFO	Listening on 127.0.0.1:50176
1501943587679	geckodriver	INFO	geckodriver 0.18.0
1501943587683	geckodriver	INFO	Listening on 127.0.0.1:50205
1501943645016	geckodriver	INFO	geckodriver 0.18.0
1501943645020	geckodriver	INFO	Listening on 127.0.0.1:50213
1501943705017	geckodriver	INFO	geckodriver 0.18.0
1501943705021	geckodriver	INFO	Listening on 127.0.0.1:50220
1501943765018	geckodriver	INFO	geckodriver 0.18.0
1501943765024	geckodriver	INFO	Listening on 127.0.0.1:50242
1501943825017	geckodriver	INFO	geckodriver 0.18.0
1501943825021	geckodriver	INFO	Listening on 127.0.0.1:50267
1501943825081	geckodriver::marionette	INFO	Starting browser /Applications/Firefox.app/Contents/MacOS/firefox-bin with args ["-marionette"]
1501943827112	Marionette	INFO	Listening on port 50274
1501943827189	Marionette	WARN	TLS certificate errors will be ignored for this session
1501943827384	Marionette	DEBUG	loaded listener.js
1501943827413	Marionette	DEBUG	Received DOM event "beforeunload" for "about:blank"
2017-08-05 14:37:07.482 plugin-container[1490:50879] *** CFMessagePort: bootstrap_register(): failed 1100 (0x44c) 'Permission denied', port = 0x9137, name = 'com.apple.tsm.portname'
See /usr/include/servers/bootstrap_defs.h for the error codes.
2017-08-05 14:37:07.485 plugin-container[1490:50879] *** CFMessagePort: bootstrap_register(): failed 1100 (0x44c) 'Permission denied', port = 0x9403, name = 'com.apple.CFPasteboardClient'
See /usr/include/servers/bootstrap_defs.h for the error codes.
1501943828567	Marionette	DEBUG	Received DOM event "pagehide" for "about:blank"
1501943828567	Marionette	DEBUG	Received DOM event "unload" for "about:blank"
1501943829874	Marionette	DEBUG	Received DOM event "DOMContentLoaded" for "https://www.ptt.cc/bbs/Soft_Job/index.html"
1501943831024	Marionette	DEBUG	Received DOM event "pageshow" for "https://www.ptt.cc/bbs/Soft_Job/index.html"
1501943831071	Marionette	DEBUG	Received DOM event "beforeunload" for "https://www.ptt.cc/bbs/Soft_Job/index.html"
1501943831561	Marionette	DEBUG	Received DOM event "pagehide" for "https://www.ptt.cc/bbs/Soft_Job/index.html"
1501943831562	Marionette	DEBUG	Received DOM event "unload" for "https://www.ptt.cc/bbs/Soft_Job/index.html"
1501943832069	Marionette	DEBUG	Received DOM event "DOMContentLoaded" for "https://www.ptt.cc/bbs/Soft_Job/index1271.html"
1501943832194	Marionette	DEBUG	Received DOM event "pageshow" for "https://www.ptt.cc/bbs/Soft_Job/index1271.html"
1501943832267	Marionette	DEBUG	Received DOM event "beforeunload" for "https://www.ptt.cc/bbs/Soft_Job/index1271.html"
1501943832591	Marionette	DEBUG	Received DOM event "pagehide" for "https://www.ptt.cc/bbs/Soft_Job/index1271.html"
1501943832591	Marionette	DEBUG	Received DOM event "unload" for "https://www.ptt.cc/bbs/Soft_Job/index1271.html"
1501943832886	Marionette	DEBUG	Received DOM event "DOMContentLoaded" for "https://www.ptt.cc/bbs/Soft_Job/index1270.html"
1501943832973	Marionette	DEBUG	Received DOM event "pageshow" for "https://www.ptt.cc/bbs/Soft_Job/index1270.html"
1501943833048	Marionette	DEBUG	Received DOM event "beforeunload" for "https://www.ptt.cc/bbs/Soft_Job/index1270.html"
1501943833358	Marionette	DEBUG	Received DOM event "pagehide" for "https://www.ptt.cc/bbs/Soft_Job/index1270.html"
1501943833358	Marionette	DEBUG	Received DOM event "unload" for "https://www.ptt.cc/bbs/Soft_Job/index1270.html"
1501943833442	Marionette	DEBUG	Received DOM event "DOMContentLoaded" for "https://www.ptt.cc/bbs/Soft_Job/index1269.html"
1501943833508	Marionette	DEBUG	Received DOM event "pageshow" for "https://www.ptt.cc/bbs/Soft_Job/index1269.html"
1501943833582	Marionette	DEBUG	Received DOM event "beforeunload" for "https://www.ptt.cc/bbs/Soft_Job/index1269.html"
1501943833984	Marionette	DEBUG	Received DOM event "pagehide" for "https://www.ptt.cc/bbs/Soft_Job/index1269.html"
1501943833984	Marionette	DEBUG	Received DOM event "unload" for "https://www.ptt.cc/bbs/Soft_Job/index1269.html"
1501943834104	Marionette	DEBUG	Received DOM event "DOMContentLoaded" for "https://www.ptt.cc/bbs/Soft_Job/index1268.html"
1501943834262	Marionette	DEBUG	Received DOM event "pageshow" for "https://www.ptt.cc/bbs/Soft_Job/index1268.html"
1501943834349	Marionette	DEBUG	Received DOM event "beforeunload" for "https://www.ptt.cc/bbs/Soft_Job/index1268.html"
1501943834729	Marionette	DEBUG	Received DOM event "pagehide" for "https://www.ptt.cc/bbs/Soft_Job/index1268.html"
1501943834729	Marionette	DEBUG	Received DOM event "unload" for "https://www.ptt.cc/bbs/Soft_Job/index1268.html"
1501943834843	Marionette	DEBUG	Received DOM event "DOMContentLoaded" for "https://www.ptt.cc/bbs/Soft_Job/index1267.html"
1501943834936	Marionette	DEBUG	Received DOM event "pageshow" for "https://www.ptt.cc/bbs/Soft_Job/index1267.html"
1501943835004	Marionette	DEBUG	Received DOM event "beforeunload" for "https://www.ptt.cc/bbs/Soft_Job/index1267.html"
1501943835342	Marionette	DEBUG	Received DOM event "pagehide" for "https://www.ptt.cc/bbs/Soft_Job/index1267.html"
1501943835343	Marionette	DEBUG	Received DOM event "unload" for "https://www.ptt.cc/bbs/Soft_Job/index1267.html"
1501943835487	Marionette	DEBUG	Received DOM event "DOMContentLoaded" for "https://www.ptt.cc/bbs/Soft_Job/index1266.html"
1501943835559	Marionette	DEBUG	Received DOM event "pageshow" for "https://www.ptt.cc/bbs/Soft_Job/index1266.html"
1501943835637	Marionette	DEBUG	Received DOM event "beforeunload" for "https://www.ptt.cc/bbs/Soft_Job/index1266.html"
1501943835960	Marionette	DEBUG	Received DOM event "pagehide" for "https://www.ptt.cc/bbs/Soft_Job/index1266.html"
1501943835960	Marionette	DEBUG	Received DOM event "unload" for "https://www.ptt.cc/bbs/Soft_Job/index1266.html"
1501943836113	Marionette	DEBUG	Received DOM event "DOMContentLoaded" for "https://www.ptt.cc/bbs/Soft_Job/index1265.html"
1501943836211	Marionette	DEBUG	Received DOM event "pageshow" for "https://www.ptt.cc/bbs/Soft_Job/index1265.html"
1501943836290	Marionette	DEBUG	Received DOM event "beforeunload" for "https://www.ptt.cc/bbs/Soft_Job/index1265.html"
1501943836675	Marionette	DEBUG	Received DOM event "pagehide" for "https://www.ptt.cc/bbs/Soft_Job/index1265.html"
1501943836675	Marionette	DEBUG	Received DOM event "unload" for "https://www.ptt.cc/bbs/Soft_Job/index1265.html"
1501943836775	Marionette	DEBUG	Received DOM event "DOMContentLoaded" for "https://www.ptt.cc/bbs/Soft_Job/index1264.html"
1501943836884	Marionette	DEBUG	Received DOM event "pageshow" for "https://www.ptt.cc/bbs/Soft_Job/index1264.html"
1501943837018	Marionette	DEBUG	Received DOM event "beforeunload" for "https://www.ptt.cc/bbs/Soft_Job/index1264.html"
1501943837371	Marionette	DEBUG	Received DOM event "pagehide" for "https://www.ptt.cc/bbs/Soft_Job/index1264.html"
1501943837371	Marionette	DEBUG	Received DOM event "unload" for "https://www.ptt.cc/bbs/Soft_Job/index1264.html"
1501943837558	Marionette	DEBUG	Received DOM event "DOMContentLoaded" for "https://www.ptt.cc/bbs/Soft_Job/index1263.html"
1501943837640	Marionette	DEBUG	Received DOM event "pageshow" for "https://www.ptt.cc/bbs/Soft_Job/index1263.html"
1501943837711	Marionette	DEBUG	Received DOM event "beforeunload" for "https://www.ptt.cc/bbs/Soft_Job/index1263.html"
1501943838223	Marionette	DEBUG	Received DOM event "pagehide" for "https://www.ptt.cc/bbs/Soft_Job/index1263.html"
1501943838223	Marionette	DEBUG	Received DOM event "unload" for "https://www.ptt.cc/bbs/Soft_Job/index1263.html"
1501943838362	Marionette	DEBUG	Received DOM event "DOMContentLoaded" for "https://www.ptt.cc/bbs/Soft_Job/index1262.html"
1501943838489	Marionette	DEBUG	Received DOM event "pageshow" for "https://www.ptt.cc/bbs/Soft_Job/index1262.html"
1501943838560	Marionette	DEBUG	Received DOM event "beforeunload" for "https://www.ptt.cc/bbs/Soft_Job/index1262.html"
1501943838930	Marionette	DEBUG	Received DOM event "pagehide" for "https://www.ptt.cc/bbs/Soft_Job/index1262.html"
1501943838930	Marionette	DEBUG	Received DOM event "unload" for "https://www.ptt.cc/bbs/Soft_Job/index1262.html"
1501943839011	Marionette	DEBUG	Received DOM event "DOMContentLoaded" for "https://www.ptt.cc/bbs/Soft_Job/index1261.html"
1501943839083	Marionette	DEBUG	Received DOM event "pageshow" for "https://www.ptt.cc/bbs/Soft_Job/index1261.html"
1501943839150	Marionette	DEBUG	Received DOM event "beforeunload" for "https://www.ptt.cc/bbs/Soft_Job/index1261.html"
1501943839538	Marionette	DEBUG	Received DOM event "pagehide" for "https://www.ptt.cc/bbs/Soft_Job/index1261.html"
1501943839539	Marionette	DEBUG	Received DOM event "unload" for "https://www.ptt.cc/bbs/Soft_Job/index1261.html"
1501943839641	Marionette	DEBUG	Received DOM event "DOMContentLoaded" for "https://www.ptt.cc/bbs/Soft_Job/index1260.html"
1501943839697	Marionette	DEBUG	Received DOM event "pageshow" for "https://www.ptt.cc/bbs/Soft_Job/index1260.html"
1501943839771	Marionette	DEBUG	Received DOM event "beforeunload" for "https://www.ptt.cc/bbs/Soft_Job/index1260.html"
1501943840071	Marionette	DEBUG	Received DOM event "pagehide" for "https://www.ptt.cc/bbs/Soft_Job/index1260.html"
1501943840071	Marionette	DEBUG	Received DOM event "unload" for "https://www.ptt.cc/bbs/Soft_Job/index1260.html"
1501943840159	Marionette	DEBUG	Received DOM event "DOMContentLoaded" for "https://www.ptt.cc/bbs/Soft_Job/index1259.html"
1501943840259	Marionette	DEBUG	Received DOM event "pageshow" for "https://www.ptt.cc/bbs/Soft_Job/index1259.html"
1501943840331	Marionette	DEBUG	Received DOM event "beforeunload" for "https://www.ptt.cc/bbs/Soft_Job/index1259.html"
1501943840647	Marionette	DEBUG	Received DOM event "pagehide" for "https://www.ptt.cc/bbs/Soft_Job/index1259.html"
1501943840647	Marionette	DEBUG	Received DOM event "unload" for "https://www.ptt.cc/bbs/Soft_Job/index1259.html"
1501943840731	Marionette	DEBUG	Received DOM event "DOMContentLoaded" for "https://www.ptt.cc/bbs/Soft_Job/index1258.html"
1501943840832	Marionette	DEBUG	Received DOM event "pageshow" for "https://www.ptt.cc/bbs/Soft_Job/index1258.html"
1501943840901	Marionette	DEBUG	Received DOM event "beforeunload" for "https://www.ptt.cc/bbs/Soft_Job/index1258.html"
1501943841208	Marionette	DEBUG	Received DOM event "pagehide" for "https://www.ptt.cc/bbs/Soft_Job/index1258.html"
1501943841208	Marionette	DEBUG	Received DOM event "unload" for "https://www.ptt.cc/bbs/Soft_Job/index1258.html"
1501943841288	Marionette	DEBUG	Received DOM event "DOMContentLoaded" for "https://www.ptt.cc/bbs/Soft_Job/index1257.html"
1501943841372	Marionette	DEBUG	Received DOM event "pageshow" for "https://www.ptt.cc/bbs/Soft_Job/index1257.html"
1501943841438	Marionette	DEBUG	Received DOM event "beforeunload" for "https://www.ptt.cc/bbs/Soft_Job/index1257.html"
1501943841741	Marionette	DEBUG	Received DOM event "pagehide" for "https://www.ptt.cc/bbs/Soft_Job/index1257.html"
1501943841742	Marionette	DEBUG	Received DOM event "unload" for "https://www.ptt.cc/bbs/Soft_Job/index1257.html"
1501943841862	Marionette	DEBUG	Received DOM event "DOMContentLoaded" for "https://www.ptt.cc/bbs/Soft_Job/index1256.html"
1501943841927	Marionette	DEBUG	Received DOM event "pageshow" for "https://www.ptt.cc/bbs/Soft_Job/index1256.html"
1501943841995	Marionette	DEBUG	Received DOM event "beforeunload" for "https://www.ptt.cc/bbs/Soft_Job/index1256.html"
1501943842412	Marionette	DEBUG	Received DOM event "pagehide" for "https://www.ptt.cc/bbs/Soft_Job/index1256.html"
1501943842412	Marionette	DEBUG	Received DOM event "unload" for "https://www.ptt.cc/bbs/Soft_Job/index1256.html"
1501943842483	Marionette	DEBUG	Received DOM event "DOMContentLoaded" for "https://www.ptt.cc/bbs/Soft_Job/index1255.html"
1501943842565	Marionette	DEBUG	Received DOM event "pageshow" for "https://www.ptt.cc/bbs/Soft_Job/index1255.html"
1501943842648	Marionette	DEBUG	Received DOM event "beforeunload" for "https://www.ptt.cc/bbs/Soft_Job/index1255.html"
1501943843742	Marionette	DEBUG	Received DOM event "pagehide" for "https://www.ptt.cc/bbs/Soft_Job/index1255.html"
1501943843742	Marionette	DEBUG	Received DOM event "unload" for "https://www.ptt.cc/bbs/Soft_Job/index1255.html"
1501943843851	Marionette	DEBUG	Received DOM event "DOMContentLoaded" for "https://www.ptt.cc/bbs/Soft_Job/index1254.html"
1501943843963	Marionette	DEBUG	Received DOM event "pageshow" for "https://www.ptt.cc/bbs/Soft_Job/index1254.html"
1501943844041	Marionette	DEBUG	Received DOM event "beforeunload" for "https://www.ptt.cc/bbs/Soft_Job/index1254.html"
1501943845174	Marionette	DEBUG	Received DOM event "pagehide" for "https://www.ptt.cc/bbs/Soft_Job/index1254.html"
1501943845175	Marionette	DEBUG	Received DOM event "unload" for "https://www.ptt.cc/bbs/Soft_Job/index1254.html"
1501943845294	Marionette	DEBUG	Received DOM event "DOMContentLoaded" for "https://www.ptt.cc/bbs/Soft_Job/index1253.html"
1501943845416	Marionette	DEBUG	Received DOM event "pageshow" for "https://www.ptt.cc/bbs/Soft_Job/index1253.html"
1501943845514	Marionette	DEBUG	Received DOM event "beforeunload" for "https://www.ptt.cc/bbs/Soft_Job/index1253.html"
1501943845891	Marionette	DEBUG	Received DOM event "pagehide" for "https://www.ptt.cc/bbs/Soft_Job/index1253.html"
1501943845891	Marionette	DEBUG	Received DOM event "unload" for "https://www.ptt.cc/bbs/Soft_Job/index1253.html"
1501943846001	Marionette	DEBUG	Received DOM event "DOMContentLoaded" for "https://www.ptt.cc/bbs/Soft_Job/index1252.html"
1501943846193	Marionette	DEBUG	Received DOM event "pageshow" for "https://www.ptt.cc/bbs/Soft_Job/index1252.html"
1501943846262	Marionette	DEBUG	Received DOM event "beforeunload" for "https://www.ptt.cc/bbs/Soft_Job/index1252.html"
1501943846711	Marionette	DEBUG	Received DOM event "pagehide" for "https://www.ptt.cc/bbs/Soft_Job/index1252.html"
1501943846711	Marionette	DEBUG	Received DOM event "unload" for "https://www.ptt.cc/bbs/Soft_Job/index1252.html"
1501943846828	Marionette	DEBUG	Received DOM event "DOMContentLoaded" for "https://www.ptt.cc/bbs/Soft_Job/index1251.html"
1501943846958	Marionette	DEBUG	Received DOM event "pageshow" for "https://www.ptt.cc/bbs/Soft_Job/index1251.html"
1501943847032	Marionette	DEBUG	Received DOM event "beforeunload" for "https://www.ptt.cc/bbs/Soft_Job/index1251.html"
1501943847598	Marionette	DEBUG	Received DOM event "pagehide" for "https://www.ptt.cc/bbs/Soft_Job/index1251.html"
1501943847599	Marionette	DEBUG	Received DOM event "unload" for "https://www.ptt.cc/bbs/Soft_Job/index1251.html"
1501943847723	Marionette	DEBUG	Received DOM event "DOMContentLoaded" for "https://www.ptt.cc/bbs/Soft_Job/index1250.html"
1501943847916	Marionette	DEBUG	Received DOM event "pageshow" for "https://www.ptt.cc/bbs/Soft_Job/index1250.html"
1501943847994	Marionette	DEBUG	Received DOM event "beforeunload" for "https://www.ptt.cc/bbs/Soft_Job/index1250.html"
1501943848362	Marionette	DEBUG	Received DOM event "pagehide" for "https://www.ptt.cc/bbs/Soft_Job/index1250.html"
1501943848364	Marionette	DEBUG	Received DOM event "unload" for "https://www.ptt.cc/bbs/Soft_Job/index1250.html"
1501943848485	Marionette	DEBUG	Received DOM event "DOMContentLoaded" for "https://www.ptt.cc/bbs/Soft_Job/index1249.html"
1501943848618	Marionette	DEBUG	Received DOM event "pageshow" for "https://www.ptt.cc/bbs/Soft_Job/index1249.html"
1501943848699	Marionette	DEBUG	Received DOM event "beforeunload" for "https://www.ptt.cc/bbs/Soft_Job/index1249.html"
1501943849099	Marionette	DEBUG	Received DOM event "pagehide" for "https://www.ptt.cc/bbs/Soft_Job/index1249.html"
1501943849099	Marionette	DEBUG	Received DOM event "unload" for "https://www.ptt.cc/bbs/Soft_Job/index1249.html"
1501943849189	Marionette	DEBUG	Received DOM event "DOMContentLoaded" for "https://www.ptt.cc/bbs/Soft_Job/index1248.html"
1501943849306	Marionette	DEBUG	Received DOM event "pageshow" for "https://www.ptt.cc/bbs/Soft_Job/index1248.html"
1501943849398	Marionette	DEBUG	Received DOM event "beforeunload" for "https://www.ptt.cc/bbs/Soft_Job/index1248.html"
1501943849724	Marionette	DEBUG	Received DOM event "pagehide" for "https://www.ptt.cc/bbs/Soft_Job/index1248.html"
1501943849724	Marionette	DEBUG	Received DOM event "unload" for "https://www.ptt.cc/bbs/Soft_Job/index1248.html"
1501943849810	Marionette	DEBUG	Received DOM event "DOMContentLoaded" for "https://www.ptt.cc/bbs/Soft_Job/index1247.html"
1501943849929	Marionette	DEBUG	Received DOM event "pageshow" for "https://www.ptt.cc/bbs/Soft_Job/index1247.html"
1501943850001	Marionette	DEBUG	Received DOM event "beforeunload" for "https://www.ptt.cc/bbs/Soft_Job/index1247.html"
1501943851113	Marionette	DEBUG	Received DOM event "pagehide" for "https://www.ptt.cc/bbs/Soft_Job/index1247.html"
1501943851113	Marionette	DEBUG	Received DOM event "unload" for "https://www.ptt.cc/bbs/Soft_Job/index1247.html"
1501943851259	Marionette	DEBUG	Received DOM event "DOMContentLoaded" for "https://www.ptt.cc/bbs/Soft_Job/index1246.html"
1501943851396	Marionette	DEBUG	Received DOM event "pageshow" for "https://www.ptt.cc/bbs/Soft_Job/index1246.html"
1501943851462	Marionette	DEBUG	Received DOM event "beforeunload" for "https://www.ptt.cc/bbs/Soft_Job/index1246.html"
1501943851845	Marionette	DEBUG	Received DOM event "pagehide" for "https://www.ptt.cc/bbs/Soft_Job/index1246.html"
1501943851845	Marionette	DEBUG	Received DOM event "unload" for "https://www.ptt.cc/bbs/Soft_Job/index1246.html"
1501943851928	Marionette	DEBUG	Received DOM event "DOMContentLoaded" for "https://www.ptt.cc/bbs/Soft_Job/index1245.html"
1501943852068	Marionette	DEBUG	Received DOM event "pageshow" for "https://www.ptt.cc/bbs/Soft_Job/index1245.html"
1501943852137	Marionette	DEBUG	Received DOM event "beforeunload" for "https://www.ptt.cc/bbs/Soft_Job/index1245.html"
1501943852547	Marionette	DEBUG	Received DOM event "pagehide" for "https://www.ptt.cc/bbs/Soft_Job/index1245.html"
1501943852547	Marionette	DEBUG	Received DOM event "unload" for "https://www.ptt.cc/bbs/Soft_Job/index1245.html"
1501943852643	Marionette	DEBUG	Received DOM event "DOMContentLoaded" for "https://www.ptt.cc/bbs/Soft_Job/index1244.html"
1501943852771	Marionette	DEBUG	Received DOM event "pageshow" for "https://www.ptt.cc/bbs/Soft_Job/index1244.html"
1501943852853	Marionette	DEBUG	Received DOM event "beforeunload" for "https://www.ptt.cc/bbs/Soft_Job/index1244.html"
1501943853317	Marionette	DEBUG	Received DOM event "pagehide" for "https://www.ptt.cc/bbs/Soft_Job/index1244.html"
1501943853317	Marionette	DEBUG	Received DOM event "unload" for "https://www.ptt.cc/bbs/Soft_Job/index1244.html"
1501943853414	Marionette	DEBUG	Received DOM event "DOMContentLoaded" for "https://www.ptt.cc/bbs/Soft_Job/index1243.html"
1501943853573	Marionette	DEBUG	Received DOM event "pageshow" for "https://www.ptt.cc/bbs/Soft_Job/index1243.html"
1501943853639	Marionette	DEBUG	Received DOM event "beforeunload" for "https://www.ptt.cc/bbs/Soft_Job/index1243.html"
1501943854056	Marionette	DEBUG	Received DOM event "pagehide" for "https://www.ptt.cc/bbs/Soft_Job/index1243.html"
1501943854056	Marionette	DEBUG	Received DOM event "unload" for "https://www.ptt.cc/bbs/Soft_Job/index1243.html"
1501943854176	Marionette	DEBUG	Received DOM event "DOMContentLoaded" for "https://www.ptt.cc/bbs/Soft_Job/index1242.html"
1501943854341	Marionette	DEBUG	Received DOM event "pageshow" for "https://www.ptt.cc/bbs/Soft_Job/index1242.html"
1501943854411	Marionette	DEBUG	Received DOM event "beforeunload" for "https://www.ptt.cc/bbs/Soft_Job/index1242.html"
1501943854799	Marionette	DEBUG	Received DOM event "pagehide" for "https://www.ptt.cc/bbs/Soft_Job/index1242.html"
1501943854800	Marionette	DEBUG	Received DOM event "unload" for "https://www.ptt.cc/bbs/Soft_Job/index1242.html"
1501943854877	Marionette	DEBUG	Received DOM event "DOMContentLoaded" for "https://www.ptt.cc/bbs/Soft_Job/index1241.html"
1501943855016	Marionette	DEBUG	Received DOM event "pageshow" for "https://www.ptt.cc/bbs/Soft_Job/index1241.html"
1501943855097	Marionette	DEBUG	Received DOM event "beforeunload" for "https://www.ptt.cc/bbs/Soft_Job/index1241.html"
1501943855492	Marionette	DEBUG	Received DOM event "pagehide" for "https://www.ptt.cc/bbs/Soft_Job/index1241.html"
1501943855492	Marionette	DEBUG	Received DOM event "unload" for "https://www.ptt.cc/bbs/Soft_Job/index1241.html"
1501943855565	Marionette	DEBUG	Received DOM event "DOMContentLoaded" for "https://www.ptt.cc/bbs/Soft_Job/index1240.html"
1501943855704	Marionette	DEBUG	Received DOM event "pageshow" for "https://www.ptt.cc/bbs/Soft_Job/index1240.html"
1501943855768	Marionette	DEBUG	Received DOM event "beforeunload" for "https://www.ptt.cc/bbs/Soft_Job/index1240.html"
1501943856237	Marionette	DEBUG	Received DOM event "pagehide" for "https://www.ptt.cc/bbs/Soft_Job/index1240.html"
1501943856238	Marionette	DEBUG	Received DOM event "unload" for "https://www.ptt.cc/bbs/Soft_Job/index1240.html"
1501943856335	Marionette	DEBUG	Received DOM event "DOMContentLoaded" for "https://www.ptt.cc/bbs/Soft_Job/index1239.html"
1501943856462	Marionette	DEBUG	Received DOM event "pageshow" for "https://www.ptt.cc/bbs/Soft_Job/index1239.html"
1501943856524	Marionette	DEBUG	Received DOM event "beforeunload" for "https://www.ptt.cc/bbs/Soft_Job/index1239.html"
1501943856950	Marionette	DEBUG	Received DOM event "pagehide" for "https://www.ptt.cc/bbs/Soft_Job/index1239.html"
1501943856950	Marionette	DEBUG	Received DOM event "unload" for "https://www.ptt.cc/bbs/Soft_Job/index1239.html"
1501943857042	Marionette	DEBUG	Received DOM event "DOMContentLoaded" for "https://www.ptt.cc/bbs/Soft_Job/index1238.html"
1501943857173	Marionette	DEBUG	Received DOM event "pageshow" for "https://www.ptt.cc/bbs/Soft_Job/index1238.html"
1501943857235	Marionette	DEBUG	Received DOM event "beforeunload" for "https://www.ptt.cc/bbs/Soft_Job/index1238.html"
1501943857675	Marionette	DEBUG	Received DOM event "pagehide" for "https://www.ptt.cc/bbs/Soft_Job/index1238.html"
1501943857675	Marionette	DEBUG	Received DOM event "unload" for "https://www.ptt.cc/bbs/Soft_Job/index1238.html"
1501943857787	Marionette	DEBUG	Received DOM event "DOMContentLoaded" for "https://www.ptt.cc/bbs/Soft_Job/index1237.html"
1501943857948	Marionette	DEBUG	Received DOM event "pageshow" for "https://www.ptt.cc/bbs/Soft_Job/index1237.html"
1501943858023	Marionette	DEBUG	Received DOM event "beforeunload" for "https://www.ptt.cc/bbs/Soft_Job/index1237.html"
1501943858382	Marionette	DEBUG	Received DOM event "pagehide" for "https://www.ptt.cc/bbs/Soft_Job/index1237.html"
1501943858382	Marionette	DEBUG	Received DOM event "unload" for "https://www.ptt.cc/bbs/Soft_Job/index1237.html"
1501943858469	Marionette	DEBUG	Received DOM event "DOMContentLoaded" for "https://www.ptt.cc/bbs/Soft_Job/index1236.html"
1501943858614	Marionette	DEBUG	Received DOM event "pageshow" for "https://www.ptt.cc/bbs/Soft_Job/index1236.html"
1501943858689	Marionette	DEBUG	Received DOM event "beforeunload" for "https://www.ptt.cc/bbs/Soft_Job/index1236.html"
1501943859103	Marionette	DEBUG	Received DOM event "pagehide" for "https://www.ptt.cc/bbs/Soft_Job/index1236.html"
1501943859103	Marionette	DEBUG	Received DOM event "unload" for "https://www.ptt.cc/bbs/Soft_Job/index1236.html"
1501943859194	Marionette	DEBUG	Received DOM event "DOMContentLoaded" for "https://www.ptt.cc/bbs/Soft_Job/index1235.html"
1501943859315	Marionette	DEBUG	Received DOM event "pageshow" for "https://www.ptt.cc/bbs/Soft_Job/index1235.html"
1501943859387	Marionette	DEBUG	Received DOM event "beforeunload" for "https://www.ptt.cc/bbs/Soft_Job/index1235.html"
1501943859726	Marionette	DEBUG	Received DOM event "pagehide" for "https://www.ptt.cc/bbs/Soft_Job/index1235.html"
1501943859726	Marionette	DEBUG	Received DOM event "unload" for "https://www.ptt.cc/bbs/Soft_Job/index1235.html"
1501943859795	Marionette	DEBUG	Received DOM event "DOMContentLoaded" for "https://www.ptt.cc/bbs/Soft_Job/index1234.html"
1501943859927	Marionette	DEBUG	Received DOM event "pageshow" for "https://www.ptt.cc/bbs/Soft_Job/index1234.html"
1501943859990	Marionette	DEBUG	Received DOM event "beforeunload" for "https://www.ptt.cc/bbs/Soft_Job/index1234.html"
1501943860352	Marionette	DEBUG	Received DOM event "pagehide" for "https://www.ptt.cc/bbs/Soft_Job/index1234.html"
1501943860353	Marionette	DEBUG	Received DOM event "unload" for "https://www.ptt.cc/bbs/Soft_Job/index1234.html"
1501943860549	Marionette	DEBUG	Received DOM event "DOMContentLoaded" for "https://www.ptt.cc/bbs/Soft_Job/index1233.html"
1501943860746	Marionette	DEBUG	Received DOM event "pageshow" for "https://www.ptt.cc/bbs/Soft_Job/index1233.html"
1501943860882	Marionette	DEBUG	Received DOM event "beforeunload" for "https://www.ptt.cc/bbs/Soft_Job/index1233.html"
1501943861343	Marionette	DEBUG	Received DOM event "pagehide" for "https://www.ptt.cc/bbs/Soft_Job/index1233.html"
1501943861344	Marionette	DEBUG	Received DOM event "unload" for "https://www.ptt.cc/bbs/Soft_Job/index1233.html"
1501943861452	Marionette	DEBUG	Received DOM event "DOMContentLoaded" for "https://www.ptt.cc/bbs/Soft_Job/index1232.html"
1501943861591	Marionette	DEBUG	Received DOM event "pageshow" for "https://www.ptt.cc/bbs/Soft_Job/index1232.html"
1501943861708	Marionette	DEBUG	Received DOM event "beforeunload" for "https://www.ptt.cc/bbs/Soft_Job/index1232.html"
1501943862073	Marionette	DEBUG	Received DOM event "pagehide" for "https://www.ptt.cc/bbs/Soft_Job/index1232.html"
1501943862074	Marionette	DEBUG	Received DOM event "unload" for "https://www.ptt.cc/bbs/Soft_Job/index1232.html"
1501943862152	Marionette	DEBUG	Received DOM event "DOMContentLoaded" for "https://www.ptt.cc/bbs/Soft_Job/index1231.html"
1501943862251	Marionette	DEBUG	Received DOM event "pageshow" for "https://www.ptt.cc/bbs/Soft_Job/index1231.html"
1501943862325	Marionette	DEBUG	Received DOM event "beforeunload" for "https://www.ptt.cc/bbs/Soft_Job/index1231.html"
1501943862686	Marionette	DEBUG	Received DOM event "pagehide" for "https://www.ptt.cc/bbs/Soft_Job/index1231.html"
1501943862686	Marionette	DEBUG	Received DOM event "unload" for "https://www.ptt.cc/bbs/Soft_Job/index1231.html"
1501943862810	Marionette	DEBUG	Received DOM event "DOMContentLoaded" for "https://www.ptt.cc/bbs/Soft_Job/index1230.html"
1501943862997	Marionette	DEBUG	Received DOM event "pageshow" for "https://www.ptt.cc/bbs/Soft_Job/index1230.html"
1501943863097	Marionette	DEBUG	Received DOM event "beforeunload" for "https://www.ptt.cc/bbs/Soft_Job/index1230.html"
1501943863607	Marionette	DEBUG	Received DOM event "pagehide" for "https://www.ptt.cc/bbs/Soft_Job/index1230.html"
1501943863607	Marionette	DEBUG	Received DOM event "unload" for "https://www.ptt.cc/bbs/Soft_Job/index1230.html"
1501943863678	Marionette	DEBUG	Received DOM event "DOMContentLoaded" for "https://www.ptt.cc/bbs/Soft_Job/index1229.html"
1501943863851	Marionette	DEBUG	Received DOM event "pageshow" for "https://www.ptt.cc/bbs/Soft_Job/index1229.html"
1501943863922	Marionette	DEBUG	Received DOM event "beforeunload" for "https://www.ptt.cc/bbs/Soft_Job/index1229.html"
1501943864426	Marionette	DEBUG	Received DOM event "pagehide" for "https://www.ptt.cc/bbs/Soft_Job/index1229.html"
1501943864426	Marionette	DEBUG	Received DOM event "unload" for "https://www.ptt.cc/bbs/Soft_Job/index1229.html"
1501943864520	Marionette	DEBUG	Received DOM event "DOMContentLoaded" for "https://www.ptt.cc/bbs/Soft_Job/index1228.html"
1501943864665	Marionette	DEBUG	Received DOM event "pageshow" for "https://www.ptt.cc/bbs/Soft_Job/index1228.html"
1501943864734	Marionette	DEBUG	Received DOM event "beforeunload" for "https://www.ptt.cc/bbs/Soft_Job/index1228.html"
1501943865145	Marionette	DEBUG	Received DOM event "pagehide" for "https://www.ptt.cc/bbs/Soft_Job/index1228.html"
1501943865145	Marionette	DEBUG	Received DOM event "unload" for "https://www.ptt.cc/bbs/Soft_Job/index1228.html"
1501943865236	Marionette	DEBUG	Received DOM event "DOMContentLoaded" for "https://www.ptt.cc/bbs/Soft_Job/index1227.html"
1501943865395	Marionette	DEBUG	Received DOM event "pageshow" for "https://www.ptt.cc/bbs/Soft_Job/index1227.html"
1501943865466	Marionette	DEBUG	Received DOM event "beforeunload" for "https://www.ptt.cc/bbs/Soft_Job/index1227.html"
1501943865861	Marionette	DEBUG	Received DOM event "pagehide" for "https://www.ptt.cc/bbs/Soft_Job/index1227.html"
1501943865861	Marionette	DEBUG	Received DOM event "unload" for "https://www.ptt.cc/bbs/Soft_Job/index1227.html"
1501943865964	Marionette	DEBUG	Received DOM event "DOMContentLoaded" for "https://www.ptt.cc/bbs/Soft_Job/index1226.html"
1501943866097	Marionette	DEBUG	Received DOM event "pageshow" for "https://www.ptt.cc/bbs/Soft_Job/index1226.html"
1501943866172	Marionette	DEBUG	Received DOM event "beforeunload" for "https://www.ptt.cc/bbs/Soft_Job/index1226.html"
1501943866591	Marionette	DEBUG	Received DOM event "pagehide" for "https://www.ptt.cc/bbs/Soft_Job/index1226.html"
1501943866592	Marionette	DEBUG	Received DOM event "unload" for "https://www.ptt.cc/bbs/Soft_Job/index1226.html"
1501943866694	Marionette	DEBUG	Received DOM event "DOMContentLoaded" for "https://www.ptt.cc/bbs/Soft_Job/index1225.html"
1501943866863	Marionette	DEBUG	Received DOM event "pageshow" for "https://www.ptt.cc/bbs/Soft_Job/index1225.html"
1501943866942	Marionette	DEBUG	Received DOM event "beforeunload" for "https://www.ptt.cc/bbs/Soft_Job/index1225.html"
1501943867371	Marionette	DEBUG	Received DOM event "pagehide" for "https://www.ptt.cc/bbs/Soft_Job/index1225.html"
1501943867371	Marionette	DEBUG	Received DOM event "unload" for "https://www.ptt.cc/bbs/Soft_Job/index1225.html"
1501943867448	Marionette	DEBUG	Received DOM event "DOMContentLoaded" for "https://www.ptt.cc/bbs/Soft_Job/index1224.html"
1501943867504	Marionette	DEBUG	Received DOM event "pageshow" for "https://www.ptt.cc/bbs/Soft_Job/index1224.html"
1501943867566	Marionette	DEBUG	Received DOM event "beforeunload" for "https://www.ptt.cc/bbs/Soft_Job/index1224.html"
1501943867908	Marionette	DEBUG	Received DOM event "pagehide" for "https://www.ptt.cc/bbs/Soft_Job/index1224.html"
1501943867912	Marionette	DEBUG	Received DOM event "unload" for "https://www.ptt.cc/bbs/Soft_Job/index1224.html"
1501943868049	Marionette	DEBUG	Received DOM event "DOMContentLoaded" for "https://www.ptt.cc/bbs/Soft_Job/index1223.html"
1501943868098	Marionette	DEBUG	Received DOM event "pageshow" for "https://www.ptt.cc/bbs/Soft_Job/index1223.html"
1501943868185	Marionette	DEBUG	Received DOM event "beforeunload" for "https://www.ptt.cc/bbs/Soft_Job/index1223.html"
1501943868522	Marionette	DEBUG	Received DOM event "pagehide" for "https://www.ptt.cc/bbs/Soft_Job/index1223.html"
1501943868522	Marionette	DEBUG	Received DOM event "unload" for "https://www.ptt.cc/bbs/Soft_Job/index1223.html"
1501943868656	Marionette	DEBUG	Received DOM event "DOMContentLoaded" for "https://www.ptt.cc/bbs/Soft_Job/index1222.html"
1501943868724	Marionette	DEBUG	Received DOM event "pageshow" for "https://www.ptt.cc/bbs/Soft_Job/index1222.html"
1501943868837	Marionette	DEBUG	Received DOM event "beforeunload" for "https://www.ptt.cc/bbs/Soft_Job/index1222.html"
1501943869241	Marionette	DEBUG	Received DOM event "pagehide" for "https://www.ptt.cc/bbs/Soft_Job/index1222.html"
1501943869241	Marionette	DEBUG	Received DOM event "unload" for "https://www.ptt.cc/bbs/Soft_Job/index1222.html"
1501943869351	Marionette	DEBUG	Received DOM event "DOMContentLoaded" for "https://www.ptt.cc/bbs/Soft_Job/index1221.html"
1501943869392	Marionette	DEBUG	Received DOM event "pageshow" for "https://www.ptt.cc/bbs/Soft_Job/index1221.html"
1501943869527	Marionette	DEBUG	Received DOM event "beforeunload" for "https://www.ptt.cc/bbs/Soft_Job/index1221.html"
1501943869855	Marionette	DEBUG	Received DOM event "pagehide" for "https://www.ptt.cc/bbs/Soft_Job/index1221.html"
1501943869855	Marionette	DEBUG	Received DOM event "unload" for "https://www.ptt.cc/bbs/Soft_Job/index1221.html"
1501943869935	Marionette	DEBUG	Received DOM event "DOMContentLoaded" for "https://www.ptt.cc/bbs/Soft_Job/index1220.html"
1501943869997	Marionette	DEBUG	Received DOM event "pageshow" for "https://www.ptt.cc/bbs/Soft_Job/index1220.html"
1501943870088	Marionette	DEBUG	Received DOM event "beforeunload" for "https://www.ptt.cc/bbs/Soft_Job/index1220.html"
1501943870389	Marionette	DEBUG	Received DOM event "pagehide" for "https://www.ptt.cc/bbs/Soft_Job/index1220.html"
1501943870389	Marionette	DEBUG	Received DOM event "unload" for "https://www.ptt.cc/bbs/Soft_Job/index1220.html"
1501943870486	Marionette	DEBUG	Received DOM event "DOMContentLoaded" for "https://www.ptt.cc/bbs/Soft_Job/index1219.html"
1501943870556	Marionette	DEBUG	Received DOM event "pageshow" for "https://www.ptt.cc/bbs/Soft_Job/index1219.html"
1501943870619	Marionette	DEBUG	Received DOM event "beforeunload" for "https://www.ptt.cc/bbs/Soft_Job/index1219.html"
1501943870954	Marionette	DEBUG	Received DOM event "pagehide" for "https://www.ptt.cc/bbs/Soft_Job/index1219.html"
1501943870954	Marionette	DEBUG	Received DOM event "unload" for "https://www.ptt.cc/bbs/Soft_Job/index1219.html"
1501943871062	Marionette	DEBUG	Received DOM event "DOMContentLoaded" for "https://www.ptt.cc/bbs/Soft_Job/index1218.html"
1501943871209	Marionette	DEBUG	Received DOM event "pageshow" for "https://www.ptt.cc/bbs/Soft_Job/index1218.html"
1501943871281	Marionette	DEBUG	Received DOM event "beforeunload" for "https://www.ptt.cc/bbs/Soft_Job/index1218.html"
1501943871691	Marionette	DEBUG	Received DOM event "pagehide" for "https://www.ptt.cc/bbs/Soft_Job/index1218.html"
1501943871692	Marionette	DEBUG	Received DOM event "unload" for "https://www.ptt.cc/bbs/Soft_Job/index1218.html"
1501943871795	Marionette	DEBUG	Received DOM event "DOMContentLoaded" for "https://www.ptt.cc/bbs/Soft_Job/index1217.html"
1501943871832	Marionette	DEBUG	Received DOM event "pageshow" for "https://www.ptt.cc/bbs/Soft_Job/index1217.html"
1501943871899	Marionette	DEBUG	Received DOM event "beforeunload" for "https://www.ptt.cc/bbs/Soft_Job/index1217.html"
1501943872208	Marionette	DEBUG	Received DOM event "pagehide" for "https://www.ptt.cc/bbs/Soft_Job/index1217.html"
1501943872208	Marionette	DEBUG	Received DOM event "unload" for "https://www.ptt.cc/bbs/Soft_Job/index1217.html"
1501943872273	Marionette	DEBUG	Received DOM event "DOMContentLoaded" for "https://www.ptt.cc/bbs/Soft_Job/index1216.html"
1501943872332	Marionette	DEBUG	Received DOM event "pageshow" for "https://www.ptt.cc/bbs/Soft_Job/index1216.html"
1501943872408	Marionette	DEBUG	Received DOM event "beforeunload" for "https://www.ptt.cc/bbs/Soft_Job/index1216.html"
1501943872720	Marionette	DEBUG	Received DOM event "pagehide" for "https://www.ptt.cc/bbs/Soft_Job/index1216.html"
1501943872720	Marionette	DEBUG	Received DOM event "unload" for "https://www.ptt.cc/bbs/Soft_Job/index1216.html"
1501943872811	Marionette	DEBUG	Received DOM event "DOMContentLoaded" for "https://www.ptt.cc/bbs/Soft_Job/index1215.html"
1501943872890	Marionette	DEBUG	Received DOM event "pageshow" for "https://www.ptt.cc/bbs/Soft_Job/index1215.html"
1501943872964	Marionette	DEBUG	Received DOM event "beforeunload" for "https://www.ptt.cc/bbs/Soft_Job/index1215.html"
1501943873334	Marionette	DEBUG	Received DOM event "pagehide" for "https://www.ptt.cc/bbs/Soft_Job/index1215.html"
1501943873335	Marionette	DEBUG	Received DOM event "unload" for "https://www.ptt.cc/bbs/Soft_Job/index1215.html"
1501943873429	Marionette	DEBUG	Received DOM event "DOMContentLoaded" for "https://www.ptt.cc/bbs/Soft_Job/index1214.html"
1501943873499	Marionette	DEBUG	Received DOM event "pageshow" for "https://www.ptt.cc/bbs/Soft_Job/index1214.html"
1501943873571	Marionette	DEBUG	Received DOM event "beforeunload" for "https://www.ptt.cc/bbs/Soft_Job/index1214.html"
1501943873951	Marionette	DEBUG	Received DOM event "pagehide" for "https://www.ptt.cc/bbs/Soft_Job/index1214.html"
1501943873951	Marionette	DEBUG	Received DOM event "unload" for "https://www.ptt.cc/bbs/Soft_Job/index1214.html"
1501943874039	Marionette	DEBUG	Received DOM event "DOMContentLoaded" for "https://www.ptt.cc/bbs/Soft_Job/index1213.html"
1501943874107	Marionette	DEBUG	Received DOM event "pageshow" for "https://www.ptt.cc/bbs/Soft_Job/index1213.html"
1501943874178	Marionette	DEBUG	Received DOM event "beforeunload" for "https://www.ptt.cc/bbs/Soft_Job/index1213.html"
1501943874564	Marionette	DEBUG	Received DOM event "pagehide" for "https://www.ptt.cc/bbs/Soft_Job/index1213.html"
1501943874564	Marionette	DEBUG	Received DOM event "unload" for "https://www.ptt.cc/bbs/Soft_Job/index1213.html"
1501943874657	Marionette	DEBUG	Received DOM event "DOMContentLoaded" for "https://www.ptt.cc/bbs/Soft_Job/index1212.html"
1501943874707	Marionette	DEBUG	Received DOM event "pageshow" for "https://www.ptt.cc/bbs/Soft_Job/index1212.html"
1501943874777	Marionette	DEBUG	Received DOM event "beforeunload" for "https://www.ptt.cc/bbs/Soft_Job/index1212.html"
1501943875166	Marionette	DEBUG	Received DOM event "pagehide" for "https://www.ptt.cc/bbs/Soft_Job/index1212.html"
1501943875166	Marionette	DEBUG	Received DOM event "unload" for "https://www.ptt.cc/bbs/Soft_Job/index1212.html"
1501943875239	Marionette	DEBUG	Received DOM event "DOMContentLoaded" for "https://www.ptt.cc/bbs/Soft_Job/index1211.html"
1501943875315	Marionette	DEBUG	Received DOM event "pageshow" for "https://www.ptt.cc/bbs/Soft_Job/index1211.html"
1501943875396	Marionette	DEBUG	Received DOM event "beforeunload" for "https://www.ptt.cc/bbs/Soft_Job/index1211.html"
1501943875691	Marionette	DEBUG	Received DOM event "pagehide" for "https://www.ptt.cc/bbs/Soft_Job/index1211.html"
1501943875691	Marionette	DEBUG	Received DOM event "unload" for "https://www.ptt.cc/bbs/Soft_Job/index1211.html"
1501943875801	Marionette	DEBUG	Received DOM event "DOMContentLoaded" for "https://www.ptt.cc/bbs/Soft_Job/index1210.html"
1501943875854	Marionette	DEBUG	Received DOM event "pageshow" for "https://www.ptt.cc/bbs/Soft_Job/index1210.html"
1501943875930	Marionette	DEBUG	Received DOM event "beforeunload" for "https://www.ptt.cc/bbs/Soft_Job/index1210.html"
1501943876240	Marionette	DEBUG	Received DOM event "pagehide" for "https://www.ptt.cc/bbs/Soft_Job/index1210.html"
1501943876240	Marionette	DEBUG	Received DOM event "unload" for "https://www.ptt.cc/bbs/Soft_Job/index1210.html"
1501943876334	Marionette	DEBUG	Received DOM event "DOMContentLoaded" for "https://www.ptt.cc/bbs/Soft_Job/index1209.html"
1501943876400	Marionette	DEBUG	Received DOM event "pageshow" for "https://www.ptt.cc/bbs/Soft_Job/index1209.html"
1501943876482	Marionette	DEBUG	Received DOM event "beforeunload" for "https://www.ptt.cc/bbs/Soft_Job/index1209.html"
1501943876816	Marionette	DEBUG	Received DOM event "pagehide" for "https://www.ptt.cc/bbs/Soft_Job/index1209.html"
1501943876816	Marionette	DEBUG	Received DOM event "unload" for "https://www.ptt.cc/bbs/Soft_Job/index1209.html"
1501943876902	Marionette	DEBUG	Received DOM event "DOMContentLoaded" for "https://www.ptt.cc/bbs/Soft_Job/index1208.html"
1501943876985	Marionette	DEBUG	Received DOM event "pageshow" for "https://www.ptt.cc/bbs/Soft_Job/index1208.html"
1501943877065	Marionette	DEBUG	Received DOM event "beforeunload" for "https://www.ptt.cc/bbs/Soft_Job/index1208.html"
1501943877434	Marionette	DEBUG	Received DOM event "pagehide" for "https://www.ptt.cc/bbs/Soft_Job/index1208.html"
1501943877434	Marionette	DEBUG	Received DOM event "unload" for "https://www.ptt.cc/bbs/Soft_Job/index1208.html"
1501943877525	Marionette	DEBUG	Received DOM event "DOMContentLoaded" for "https://www.ptt.cc/bbs/Soft_Job/index1207.html"
1501943877690	Marionette	DEBUG	Received DOM event "pageshow" for "https://www.ptt.cc/bbs/Soft_Job/index1207.html"
1501943877769	Marionette	DEBUG	Received DOM event "beforeunload" for "https://www.ptt.cc/bbs/Soft_Job/index1207.html"
1501943878148	Marionette	DEBUG	Received DOM event "pagehide" for "https://www.ptt.cc/bbs/Soft_Job/index1207.html"
1501943878149	Marionette	DEBUG	Received DOM event "unload" for "https://www.ptt.cc/bbs/Soft_Job/index1207.html"
1501943878250	Marionette	DEBUG	Received DOM event "DOMContentLoaded" for "https://www.ptt.cc/bbs/Soft_Job/index1206.html"
1501943878396	Marionette	DEBUG	Received DOM event "pageshow" for "https://www.ptt.cc/bbs/Soft_Job/index1206.html"
1501943878473	Marionette	DEBUG	Received DOM event "beforeunload" for "https://www.ptt.cc/bbs/Soft_Job/index1206.html"
1501943878869	Marionette	DEBUG	Received DOM event "pagehide" for "https://www.ptt.cc/bbs/Soft_Job/index1206.html"
1501943878869	Marionette	DEBUG	Received DOM event "unload" for "https://www.ptt.cc/bbs/Soft_Job/index1206.html"
1501943878972	Marionette	DEBUG	Received DOM event "DOMContentLoaded" for "https://www.ptt.cc/bbs/Soft_Job/index1205.html"
1501943879086	Marionette	DEBUG	Received DOM event "pageshow" for "https://www.ptt.cc/bbs/Soft_Job/index1205.html"
1501943879165	Marionette	DEBUG	Received DOM event "beforeunload" for "https://www.ptt.cc/bbs/Soft_Job/index1205.html"
1501943879582	Marionette	DEBUG	Received DOM event "pagehide" for "https://www.ptt.cc/bbs/Soft_Job/index1205.html"
1501943879582	Marionette	DEBUG	Received DOM event "unload" for "https://www.ptt.cc/bbs/Soft_Job/index1205.html"
1501943879666	Marionette	DEBUG	Received DOM event "DOMContentLoaded" for "https://www.ptt.cc/bbs/Soft_Job/index1204.html"
1501943879746	Marionette	DEBUG	Received DOM event "pageshow" for "https://www.ptt.cc/bbs/Soft_Job/index1204.html"
1501943879819	Marionette	DEBUG	Received DOM event "beforeunload" for "https://www.ptt.cc/bbs/Soft_Job/index1204.html"
1501943880211	Marionette	DEBUG	Received DOM event "pagehide" for "https://www.ptt.cc/bbs/Soft_Job/index1204.html"
1501943880211	Marionette	DEBUG	Received DOM event "unload" for "https://www.ptt.cc/bbs/Soft_Job/index1204.html"
1501943880288	Marionette	DEBUG	Received DOM event "DOMContentLoaded" for "https://www.ptt.cc/bbs/Soft_Job/index1203.html"
1501943880392	Marionette	DEBUG	Received DOM event "pageshow" for "https://www.ptt.cc/bbs/Soft_Job/index1203.html"
1501943880468	Marionette	DEBUG	Received DOM event "beforeunload" for "https://www.ptt.cc/bbs/Soft_Job/index1203.html"
1501943880809	Marionette	DEBUG	Received DOM event "pagehide" for "https://www.ptt.cc/bbs/Soft_Job/index1203.html"
1501943880810	Marionette	DEBUG	Received DOM event "unload" for "https://www.ptt.cc/bbs/Soft_Job/index1203.html"
1501943880896	Marionette	DEBUG	Received DOM event "DOMContentLoaded" for "https://www.ptt.cc/bbs/Soft_Job/index1202.html"
1501943880969	Marionette	DEBUG	Received DOM event "pageshow" for "https://www.ptt.cc/bbs/Soft_Job/index1202.html"
1501943881047	Marionette	DEBUG	Received DOM event "beforeunload" for "https://www.ptt.cc/bbs/Soft_Job/index1202.html"
1501943881338	Marionette	DEBUG	Received DOM event "pagehide" for "https://www.ptt.cc/bbs/Soft_Job/index1202.html"
1501943881338	Marionette	DEBUG	Received DOM event "unload" for "https://www.ptt.cc/bbs/Soft_Job/index1202.html"
1501943881420	Marionette	DEBUG	Received DOM event "DOMContentLoaded" for "https://www.ptt.cc/bbs/Soft_Job/index1201.html"
1501943881507	Marionette	DEBUG	Received DOM event "pageshow" for "https://www.ptt.cc/bbs/Soft_Job/index1201.html"
1501943881584	Marionette	DEBUG	Received DOM event "beforeunload" for "https://www.ptt.cc/bbs/Soft_Job/index1201.html"
1501943881938	Marionette	DEBUG	Received DOM event "pagehide" for "https://www.ptt.cc/bbs/Soft_Job/index1201.html"
1501943881938	Marionette	DEBUG	Received DOM event "unload" for "https://www.ptt.cc/bbs/Soft_Job/index1201.html"
1501943882049	Marionette	DEBUG	Received DOM event "DOMContentLoaded" for "https://www.ptt.cc/bbs/Soft_Job/index1200.html"
1501943882132	Marionette	DEBUG	Received DOM event "pageshow" for "https://www.ptt.cc/bbs/Soft_Job/index1200.html"
1501943882209	Marionette	DEBUG	Received DOM event "beforeunload" for "https://www.ptt.cc/bbs/Soft_Job/index1200.html"
1501943882537	Marionette	DEBUG	Received DOM event "pagehide" for "https://www.ptt.cc/bbs/Soft_Job/index1200.html"
1501943882537	Marionette	DEBUG	Received DOM event "unload" for "https://www.ptt.cc/bbs/Soft_Job/index1200.html"
1501943882644	Marionette	DEBUG	Received DOM event "DOMContentLoaded" for "https://www.ptt.cc/bbs/Soft_Job/index1199.html"
1501943882769	Marionette	DEBUG	Received DOM event "pageshow" for "https://www.ptt.cc/bbs/Soft_Job/index1199.html"
1501943885016	geckodriver	INFO	geckodriver 0.18.0
1501943885020	geckodriver	INFO	Listening on 127.0.0.1:50498
1501943886073	geckodriver::marionette	INFO	Starting browser /Applications/Firefox.app/Contents/MacOS/firefox-bin with args ["-marionette"]
1501943887899	Marionette	INFO	Listening on port 50507
1501943887958	Marionette	WARN	TLS certificate errors will be ignored for this session
1501943888160	Marionette	DEBUG	loaded listener.js
1501943888188	Marionette	DEBUG	Received DOM event "beforeunload" for "about:blank"
2017-08-05 14:38:08.254 plugin-container[1505:52193] *** CFMessagePort: bootstrap_register(): failed 1100 (0x44c) 'Permission denied', port = 0x9233, name = 'com.apple.tsm.portname'
See /usr/include/servers/bootstrap_defs.h for the error codes.
2017-08-05 14:38:08.257 plugin-container[1505:52193] *** CFMessagePort: bootstrap_register(): failed 1100 (0x44c) 'Permission denied', port = 0x9503, name = 'com.apple.CFPasteboardClient'
See /usr/include/servers/bootstrap_defs.h for the error codes.
1501943889241	Marionette	DEBUG	Received DOM event "pagehide" for "about:blank"
1501943889241	Marionette	DEBUG	Received DOM event "unload" for "about:blank"
1501943890882	Marionette	DEBUG	Received DOM event "DOMContentLoaded" for "https://www.ptt.cc/bbs/Soft_Job/index.html"
1501943891698	Marionette	DEBUG	Received DOM event "pageshow" for "https://www.ptt.cc/bbs/Soft_Job/index.html"
1501943891750	Marionette	DEBUG	Received DOM event "beforeunload" for "https://www.ptt.cc/bbs/Soft_Job/index.html"
1501943892094	Marionette	DEBUG	Received DOM event "pagehide" for "https://www.ptt.cc/bbs/Soft_Job/index.html"
1501943892094	Marionette	DEBUG	Received DOM event "unload" for "https://www.ptt.cc/bbs/Soft_Job/index.html"
1501943892654	Marionette	DEBUG	Received DOM event "DOMContentLoaded" for "https://www.ptt.cc/bbs/Soft_Job/index1271.html"
1501943892754	Marionette	DEBUG	Received DOM event "pageshow" for "https://www.ptt.cc/bbs/Soft_Job/index1271.html"
1501943892818	Marionette	DEBUG	Received DOM event "beforeunload" for "https://www.ptt.cc/bbs/Soft_Job/index1271.html"
1501943893202	Marionette	DEBUG	Received DOM event "pagehide" for "https://www.ptt.cc/bbs/Soft_Job/index1271.html"
1501943893202	Marionette	DEBUG	Received DOM event "unload" for "https://www.ptt.cc/bbs/Soft_Job/index1271.html"
1501943893285	Marionette	DEBUG	Received DOM event "DOMContentLoaded" for "https://www.ptt.cc/bbs/Soft_Job/index1270.html"
1501943893399	Marionette	DEBUG	Received DOM event "pageshow" for "https://www.ptt.cc/bbs/Soft_Job/index1270.html"
1501943893465	Marionette	DEBUG	Received DOM event "beforeunload" for "https://www.ptt.cc/bbs/Soft_Job/index1270.html"
1501943893805	Marionette	DEBUG	Received DOM event "pagehide" for "https://www.ptt.cc/bbs/Soft_Job/index1270.html"
1501943893805	Marionette	DEBUG	Received DOM event "unload" for "https://www.ptt.cc/bbs/Soft_Job/index1270.html"
1501943893927	Marionette	DEBUG	Received DOM event "DOMContentLoaded" for "https://www.ptt.cc/bbs/Soft_Job/index1269.html"
1501943894051	Marionette	DEBUG	Received DOM event "pageshow" for "https://www.ptt.cc/bbs/Soft_Job/index1269.html"
1501943894117	Marionette	DEBUG	Received DOM event "beforeunload" for "https://www.ptt.cc/bbs/Soft_Job/index1269.html"
1501943894531	Marionette	DEBUG	Received DOM event "pagehide" for "https://www.ptt.cc/bbs/Soft_Job/index1269.html"
1501943894531	Marionette	DEBUG	Received DOM event "unload" for "https://www.ptt.cc/bbs/Soft_Job/index1269.html"
1501943894624	Marionette	DEBUG	Received DOM event "DOMContentLoaded" for "https://www.ptt.cc/bbs/Soft_Job/index1268.html"
1501943894757	Marionette	DEBUG	Received DOM event "pageshow" for "https://www.ptt.cc/bbs/Soft_Job/index1268.html"
1501943894837	Marionette	DEBUG	Received DOM event "beforeunload" for "https://www.ptt.cc/bbs/Soft_Job/index1268.html"
1501943895247	Marionette	DEBUG	Received DOM event "pagehide" for "https://www.ptt.cc/bbs/Soft_Job/index1268.html"
1501943895247	Marionette	DEBUG	Received DOM event "unload" for "https://www.ptt.cc/bbs/Soft_Job/index1268.html"
1501943895355	Marionette	DEBUG	Received DOM event "DOMContentLoaded" for "https://www.ptt.cc/bbs/Soft_Job/index1267.html"
1501943895447	Marionette	DEBUG	Received DOM event "pageshow" for "https://www.ptt.cc/bbs/Soft_Job/index1267.html"
1501943895522	Marionette	DEBUG	Received DOM event "beforeunload" for "https://www.ptt.cc/bbs/Soft_Job/index1267.html"
1501943895813	Marionette	DEBUG	Received DOM event "pagehide" for "https://www.ptt.cc/bbs/Soft_Job/index1267.html"
1501943895813	Marionette	DEBUG	Received DOM event "unload" for "https://www.ptt.cc/bbs/Soft_Job/index1267.html"
1501943895917	Marionette	DEBUG	Received DOM event "DOMContentLoaded" for "https://www.ptt.cc/bbs/Soft_Job/index1266.html"
1501943896001	Marionette	DEBUG	Received DOM event "pageshow" for "https://www.ptt.cc/bbs/Soft_Job/index1266.html"
1501943896073	Marionette	DEBUG	Received DOM event "beforeunload" for "https://www.ptt.cc/bbs/Soft_Job/index1266.html"
1501943896357	Marionette	DEBUG	Received DOM event "pagehide" for "https://www.ptt.cc/bbs/Soft_Job/index1266.html"
1501943896357	Marionette	DEBUG	Received DOM event "unload" for "https://www.ptt.cc/bbs/Soft_Job/index1266.html"
1501943896496	Marionette	DEBUG	Received DOM event "DOMContentLoaded" for "https://www.ptt.cc/bbs/Soft_Job/index1265.html"
1501943896629	Marionette	DEBUG	Received DOM event "pageshow" for "https://www.ptt.cc/bbs/Soft_Job/index1265.html"
1501943896706	Marionette	DEBUG	Received DOM event "beforeunload" for "https://www.ptt.cc/bbs/Soft_Job/index1265.html"
1501943897092	Marionette	DEBUG	Received DOM event "pagehide" for "https://www.ptt.cc/bbs/Soft_Job/index1265.html"
1501943897093	Marionette	DEBUG	Received DOM event "unload" for "https://www.ptt.cc/bbs/Soft_Job/index1265.html"
1501943897188	Marionette	DEBUG	Received DOM event "DOMContentLoaded" for "https://www.ptt.cc/bbs/Soft_Job/index1264.html"
1501943897255	Marionette	DEBUG	Received DOM event "pageshow" for "https://www.ptt.cc/bbs/Soft_Job/index1264.html"
1501943897441	Marionette	DEBUG	Received DOM event "beforeunload" for "https://www.ptt.cc/bbs/Soft_Job/index1264.html"
1501943897810	Marionette	DEBUG	Received DOM event "pagehide" for "https://www.ptt.cc/bbs/Soft_Job/index1264.html"
1501943897810	Marionette	DEBUG	Received DOM event "unload" for "https://www.ptt.cc/bbs/Soft_Job/index1264.html"
1501943897886	Marionette	DEBUG	Received DOM event "DOMContentLoaded" for "https://www.ptt.cc/bbs/Soft_Job/index1263.html"
1501943897968	Marionette	DEBUG	Received DOM event "pageshow" for "https://www.ptt.cc/bbs/Soft_Job/index1263.html"
1501943898039	Marionette	DEBUG	Received DOM event "beforeunload" for "https://www.ptt.cc/bbs/Soft_Job/index1263.html"
1501943898179	Marionette	DEBUG	Received DOM event "beforeunload" for "https://www.ptt.cc/bbs/Soft_Job/index1263.html"
1501943898281	Marionette	DEBUG	Received DOM event "pagehide" for "https://www.ptt.cc/bbs/Soft_Job/index1263.html"
1501943898281	Marionette	DEBUG	Received DOM event "unload" for "https://www.ptt.cc/bbs/Soft_Job/index1263.html"
1501943898289	Marionette	DEBUG	Received observer notification "outer-window-destroyed" for "2147483649"

###!!! [Child][MessageChannel] Error: (msgtype=0x4400CA,name=PContent::Msg_GraphicsError) Channel error: cannot send/recv

[GFX1-]: Receive IPC close with reason=AbnormalShutdown
1501944954578	geckodriver	INFO	geckodriver 0.18.0
1501944954579	geckodriver	INFO	geckodriver 0.18.0
1501944954588	geckodriver	INFO	Listening on 127.0.0.1:50702
1501944954588	geckodriver	INFO	Listening on 127.0.0.1:50703
1501944954592	geckodriver	INFO	geckodriver 0.18.0
1501944954595	geckodriver	INFO	geckodriver 0.18.0
1501944954610	geckodriver	INFO	Listening on 127.0.0.1:50704
1501944954611	geckodriver	INFO	Listening on 127.0.0.1:50705
1501944954656	geckodriver::marionette	INFO	Starting browser /Applications/Firefox.app/Contents/MacOS/firefox-bin with args ["-marionette"]
1501944954662	geckodriver::marionette	INFO	Starting browser /Applications/Firefox.app/Contents/MacOS/firefox-bin with args ["-marionette"]
1501944955730	geckodriver::marionette	INFO	Starting browser /Applications/Firefox.app/Contents/MacOS/firefox-bin with args ["-marionette"]
1501944955741	geckodriver::marionette	INFO	Starting browser /Applications/Firefox.app/Contents/MacOS/firefox-bin with args ["-marionette"]
1501944957557	Marionette	INFO	Listening on port 50723
1501944957690	Marionette	WARN	TLS certificate errors will be ignored for this session
1501944957713	Marionette	INFO	Listening on port 50722
1501944957993	Marionette	WARN	TLS certificate errors will be ignored for this session
1501944958213	Marionette	DEBUG	loaded listener.js
1501944958317	Marionette	DEBUG	Received DOM event "beforeunload" for "about:blank"
2017-08-05 14:55:58.419 plugin-container[1587:56753] *** CFMessagePort: bootstrap_register(): failed 1100 (0x44c) 'Permission denied', port = 0x913f, name = 'com.apple.tsm.portname'
See /usr/include/servers/bootstrap_defs.h for the error codes.
2017-08-05 14:55:58.426 plugin-container[1587:56753] *** CFMessagePort: bootstrap_register(): failed 1100 (0x44c) 'Permission denied', port = 0x9503, name = 'com.apple.CFPasteboardClient'
See /usr/include/servers/bootstrap_defs.h for the error codes.
1501944958499	Marionette	DEBUG	loaded listener.js
1501944958546	Marionette	DEBUG	Received DOM event "beforeunload" for "about:blank"
2017-08-05 14:55:58.689 plugin-container[1586:56749] *** CFMessagePort: bootstrap_register(): failed 1100 (0x44c) 'Permission denied', port = 0x9237, name = 'com.apple.tsm.portname'
See /usr/include/servers/bootstrap_defs.h for the error codes.
2017-08-05 14:55:58.696 plugin-container[1586:56749] *** CFMessagePort: bootstrap_register(): failed 1100 (0x44c) 'Permission denied', port = 0x9603, name = 'com.apple.CFPasteboardClient'
See /usr/include/servers/bootstrap_defs.h for the error codes.
1501944959196	Marionette	DEBUG	Received DOM event "pagehide" for "about:blank"
1501944959197	Marionette	DEBUG	Received DOM event "unload" for "about:blank"
1501944959412	Marionette	DEBUG	Received DOM event "pagehide" for "about:blank"
1501944959413	Marionette	DEBUG	Received DOM event "unload" for "about:blank"
1501944960527	Marionette	INFO	Listening on port 50776
1501944960559	Marionette	INFO	Listening on port 50783
1501944960983	Marionette	DEBUG	Received DOM event "DOMContentLoaded" for "https://www.ptt.cc/bbs/Soft_Job/index.html"
1501944960991	Marionette	WARN	TLS certificate errors will be ignored for this session
1501944961525	Marionette	DEBUG	loaded listener.js
1501944961572	Marionette	WARN	TLS certificate errors will be ignored for this session
1501944961857	Marionette	DEBUG	Received DOM event "beforeunload" for "about:blank"
2017-08-05 14:56:01.923 plugin-container[1590:56974] *** CFMessagePort: bootstrap_register(): failed 1100 (0x44c) 'Permission denied', port = 0x913f, name = 'com.apple.tsm.portname'
See /usr/include/servers/bootstrap_defs.h for the error codes.
2017-08-05 14:56:01.924 plugin-container[1590:56974] *** CFMessagePort: bootstrap_register(): failed 1100 (0x44c) 'Permission denied', port = 0x9503, name = 'com.apple.CFPasteboardClient'
See /usr/include/servers/bootstrap_defs.h for the error codes.
1501944962071	Marionette	DEBUG	Received DOM event "DOMContentLoaded" for "https://www.ptt.cc/bbs/Soft_Job/index.html"
1501944962404	Marionette	DEBUG	loaded listener.js
1501944962522	Marionette	DEBUG	Received DOM event "beforeunload" for "about:blank"
2017-08-05 14:56:02.701 plugin-container[1589:56972] *** CFMessagePort: bootstrap_register(): failed 1100 (0x44c) 'Permission denied', port = 0x913b, name = 'com.apple.tsm.portname'
See /usr/include/servers/bootstrap_defs.h for the error codes.
2017-08-05 14:56:02.703 plugin-container[1589:56972] *** CFMessagePort: bootstrap_register(): failed 1100 (0x44c) 'Permission denied', port = 0x9503, name = 'com.apple.CFPasteboardClient'
See /usr/include/servers/bootstrap_defs.h for the error codes.
1501944962724	Marionette	DEBUG	Received DOM event "pagehide" for "about:blank"
1501944962725	Marionette	DEBUG	Received DOM event "unload" for "about:blank"
1501944962736	Marionette	DEBUG	Received observer notification "outer-window-destroyed" for "2147483649"
1501944962897	Marionette	DEBUG	Received DOM event "pageshow" for "https://www.ptt.cc/bbs/Soft_Job/index.html"
1501944963039	Marionette	DEBUG	Received DOM event "beforeunload" for "https://www.ptt.cc/bbs/Soft_Job/index.html"
1501944963144	Marionette	DEBUG	Received DOM event "pagehide" for "about:blank"
1501944963144	Marionette	DEBUG	Received DOM event "unload" for "about:blank"
1501944963339	Marionette	DEBUG	Received DOM event "pagehide" for "https://www.ptt.cc/bbs/Soft_Job/index.html"
1501944963339	Marionette	DEBUG	Received DOM event "unload" for "https://www.ptt.cc/bbs/Soft_Job/index.html"
1501944963721	Marionette	DEBUG	Received DOM event "pageshow" for "https://www.ptt.cc/bbs/Soft_Job/index.html"
1501944963864	Marionette	DEBUG	Received DOM event "beforeunload" for "https://www.ptt.cc/bbs/Soft_Job/index.html"
1501944963975	Marionette	DEBUG	Received DOM event "DOMContentLoaded" for "https://www.ptt.cc/bbs/Soft_Job/index1271.html"
1501944964139	Marionette	DEBUG	Received DOM event "pagehide" for "https://www.ptt.cc/bbs/Soft_Job/index.html"
1501944964140	Marionette	DEBUG	Received DOM event "unload" for "https://www.ptt.cc/bbs/Soft_Job/index.html"
1501944964367	Marionette	DEBUG	Received DOM event "pageshow" for "https://www.ptt.cc/bbs/Soft_Job/index1271.html"
1501944964783	Marionette	DEBUG	Received DOM event "DOMContentLoaded" for "https://www.ptt.cc/bbs/Soft_Job/index1271.html"
1501944964940	Marionette	DEBUG	Received DOM event "DOMContentLoaded" for "https://www.ptt.cc/bbs/Soft_Job/index.html"
1501944965004	Marionette	DEBUG	Received DOM event "beforeunload" for "https://www.ptt.cc/bbs/Soft_Job/index1271.html"
1501944965163	Marionette	DEBUG	Received DOM event "pageshow" for "https://www.ptt.cc/bbs/Soft_Job/index1271.html"
1501944965274	Marionette	DEBUG	Received DOM event "pagehide" for "https://www.ptt.cc/bbs/Soft_Job/index1271.html"
1501944965275	Marionette	DEBUG	Received DOM event "unload" for "https://www.ptt.cc/bbs/Soft_Job/index1271.html"
1501944965385	Marionette	DEBUG	Received observer notification "outer-window-destroyed" for "2147483649"
1501944965654	Marionette	DEBUG	Received DOM event "beforeunload" for "https://www.ptt.cc/bbs/Soft_Job/index1271.html"
1501944965908	Marionette	DEBUG	Received DOM event "DOMContentLoaded" for "https://www.ptt.cc/bbs/Soft_Job/index1270.html"
1501944965946	Marionette	DEBUG	Received DOM event "pagehide" for "https://www.ptt.cc/bbs/Soft_Job/index1271.html"
1501944965946	Marionette	DEBUG	Received DOM event "unload" for "https://www.ptt.cc/bbs/Soft_Job/index1271.html"
1501944966104	Marionette	DEBUG	Received DOM event "pageshow" for "https://www.ptt.cc/bbs/Soft_Job/index1270.html"
1501944966490	Marionette	DEBUG	Received DOM event "beforeunload" for "https://www.ptt.cc/bbs/Soft_Job/index1270.html"
1501944966650	Marionette	DEBUG	Received DOM event "DOMContentLoaded" for "https://www.ptt.cc/bbs/Soft_Job/index1270.html"
1501944966741	Marionette	DEBUG	Received DOM event "pageshow" for "https://www.ptt.cc/bbs/Soft_Job/index1270.html"
1501944966766	Marionette	DEBUG	Received DOM event "pagehide" for "https://www.ptt.cc/bbs/Soft_Job/index1270.html"
1501944966766	Marionette	DEBUG	Received DOM event "unload" for "https://www.ptt.cc/bbs/Soft_Job/index1270.html"
1501944967215	Marionette	DEBUG	Received DOM event "beforeunload" for "https://www.ptt.cc/bbs/Soft_Job/index1270.html"
1501944967412	Marionette	DEBUG	Received DOM event "DOMContentLoaded" for "https://www.ptt.cc/bbs/Soft_Job/index1269.html"
1501944967585	Marionette	DEBUG	Received DOM event "pagehide" for "https://www.ptt.cc/bbs/Soft_Job/index1270.html"
1501944967586	Marionette	DEBUG	Received DOM event "unload" for "https://www.ptt.cc/bbs/Soft_Job/index1270.html"
1501944967665	Marionette	DEBUG	Received DOM event "pageshow" for "https://www.ptt.cc/bbs/Soft_Job/index1269.html"
1501944967985	Marionette	DEBUG	Received DOM event "beforeunload" for "https://www.ptt.cc/bbs/Soft_Job/index1269.html"
1501944968176	Marionette	DEBUG	Received DOM event "DOMContentLoaded" for "https://www.ptt.cc/bbs/Soft_Job/index1269.html"
1501944968276	Marionette	DEBUG	Received DOM event "pagehide" for "https://www.ptt.cc/bbs/Soft_Job/index1269.html"
1501944968276	Marionette	DEBUG	Received DOM event "unload" for "https://www.ptt.cc/bbs/Soft_Job/index1269.html"
1501944968612	Marionette	DEBUG	Received DOM event "pageshow" for "https://www.ptt.cc/bbs/Soft_Job/index1269.html"
1501944968995	Marionette	DEBUG	Received DOM event "beforeunload" for "https://www.ptt.cc/bbs/Soft_Job/index1269.html"
1501944969028	Marionette	DEBUG	Received DOM event "DOMContentLoaded" for "https://www.ptt.cc/bbs/Soft_Job/index1268.html"
1501944969134	Marionette	DEBUG	Received DOM event "pageshow" for "https://www.ptt.cc/bbs/Soft_Job/index1268.html"
1501944969247	Marionette	DEBUG	Received DOM event "beforeunload" for "https://www.ptt.cc/bbs/Soft_Job/index1268.html"
1501944969267	Marionette	DEBUG	Received DOM event "pagehide" for "https://www.ptt.cc/bbs/Soft_Job/index1269.html"
1501944969268	Marionette	DEBUG	Received DOM event "unload" for "https://www.ptt.cc/bbs/Soft_Job/index1269.html"
1501944969396	Marionette	DEBUG	Received DOM event "DOMContentLoaded" for "https://www.ptt.cc/bbs/Soft_Job/index1268.html"
1501944969512	Marionette	DEBUG	Received DOM event "pageshow" for "https://www.ptt.cc/bbs/Soft_Job/index1268.html"
1501944969516	Marionette	DEBUG	Received DOM event "pagehide" for "https://www.ptt.cc/bbs/Soft_Job/index1268.html"
1501944969517	Marionette	DEBUG	Received DOM event "unload" for "https://www.ptt.cc/bbs/Soft_Job/index1268.html"
1501944969671	Marionette	DEBUG	Received DOM event "DOMContentLoaded" for "https://www.ptt.cc/bbs/Soft_Job/index1267.html"
1501944969708	Marionette	DEBUG	Received DOM event "beforeunload" for "https://www.ptt.cc/bbs/Soft_Job/index1268.html"
1501944969781	Marionette	DEBUG	Received DOM event "pageshow" for "https://www.ptt.cc/bbs/Soft_Job/index1267.html"
1501944969905	Marionette	DEBUG	Received DOM event "beforeunload" for "https://www.ptt.cc/bbs/Soft_Job/index1267.html"
1501944970080	Marionette	DEBUG	Received DOM event "pagehide" for "https://www.ptt.cc/bbs/Soft_Job/index1268.html"
1501944970080	Marionette	DEBUG	Received DOM event "unload" for "https://www.ptt.cc/bbs/Soft_Job/index1268.html"
1501944970173	Marionette	DEBUG	Received DOM event "beforeunload" for "https://www.ptt.cc/bbs/Soft_Job/index1267.html"
1501944970181	Marionette	DEBUG	Received DOM event "DOMContentLoaded" for "https://www.ptt.cc/bbs/Soft_Job/index1267.html"
1501944970260	Marionette	DEBUG	Received DOM event "pageshow" for "https://www.ptt.cc/bbs/Soft_Job/index1267.html"
1501944970292	Marionette	DEBUG	Received DOM event "pagehide" for "https://www.ptt.cc/bbs/Soft_Job/index1267.html"
1501944970293	Marionette	DEBUG	Received DOM event "unload" for "https://www.ptt.cc/bbs/Soft_Job/index1267.html"
1501944970303	Marionette	DEBUG	Received observer notification "outer-window-destroyed" for "2147483649"
1501944970358	Marionette	DEBUG	Received DOM event "beforeunload" for "https://www.ptt.cc/bbs/Soft_Job/index1267.html"
1501944970632	Marionette	DEBUG	Received DOM event "pagehide" for "https://www.ptt.cc/bbs/Soft_Job/index1267.html"
1501944970632	Marionette	DEBUG	Received DOM event "unload" for "https://www.ptt.cc/bbs/Soft_Job/index1267.html"
1501944970710	Marionette	DEBUG	Received DOM event "DOMContentLoaded" for "https://www.ptt.cc/bbs/Soft_Job/index1266.html"
1501944970772	Marionette	DEBUG	Received DOM event "pageshow" for "https://www.ptt.cc/bbs/Soft_Job/index1266.html"
1501944970843	Marionette	DEBUG	Received DOM event "beforeunload" for "https://www.ptt.cc/bbs/Soft_Job/index1266.html"
1501944971117	Marionette	DEBUG	Received DOM event "pagehide" for "https://www.ptt.cc/bbs/Soft_Job/index1266.html"
1501944971117	Marionette	DEBUG	Received DOM event "unload" for "https://www.ptt.cc/bbs/Soft_Job/index1266.html"
1501944971244	Marionette	DEBUG	Received DOM event "DOMContentLoaded" for "https://www.ptt.cc/bbs/Soft_Job/index1265.html"
1501944971290	Marionette	DEBUG	Received DOM event "pageshow" for "https://www.ptt.cc/bbs/Soft_Job/index1265.html"
1501944971351	Marionette	DEBUG	Received DOM event "beforeunload" for "https://www.ptt.cc/bbs/Soft_Job/index1265.html"
1501944971650	Marionette	DEBUG	Received DOM event "pagehide" for "https://www.ptt.cc/bbs/Soft_Job/index1265.html"
1501944971650	Marionette	DEBUG	Received DOM event "unload" for "https://www.ptt.cc/bbs/Soft_Job/index1265.html"
1501944971717	Marionette	DEBUG	Received DOM event "DOMContentLoaded" for "https://www.ptt.cc/bbs/Soft_Job/index1264.html"
1501944971807	Marionette	DEBUG	Received DOM event "pageshow" for "https://www.ptt.cc/bbs/Soft_Job/index1264.html"
1501944971873	Marionette	DEBUG	Received DOM event "beforeunload" for "https://www.ptt.cc/bbs/Soft_Job/index1264.html"
1501944972163	Marionette	DEBUG	Received DOM event "pagehide" for "https://www.ptt.cc/bbs/Soft_Job/index1264.html"
1501944972163	Marionette	DEBUG	Received DOM event "unload" for "https://www.ptt.cc/bbs/Soft_Job/index1264.html"
1501944972281	Marionette	DEBUG	Received DOM event "DOMContentLoaded" for "https://www.ptt.cc/bbs/Soft_Job/index1263.html"
1501944972334	Marionette	DEBUG	Received DOM event "pageshow" for "https://www.ptt.cc/bbs/Soft_Job/index1263.html"
1501944972433	Marionette	DEBUG	Received DOM event "beforeunload" for "https://www.ptt.cc/bbs/Soft_Job/index1263.html"
1501944972727	Marionette	DEBUG	Received DOM event "pagehide" for "https://www.ptt.cc/bbs/Soft_Job/index1263.html"
1501944972727	Marionette	DEBUG	Received DOM event "unload" for "https://www.ptt.cc/bbs/Soft_Job/index1263.html"
1501944972806	Marionette	DEBUG	Received DOM event "DOMContentLoaded" for "https://www.ptt.cc/bbs/Soft_Job/index1262.html"
1501944972872	Marionette	DEBUG	Received DOM event "pageshow" for "https://www.ptt.cc/bbs/Soft_Job/index1262.html"
1501944972939	Marionette	DEBUG	Received DOM event "beforeunload" for "https://www.ptt.cc/bbs/Soft_Job/index1262.html"
1501944973225	Marionette	DEBUG	Received DOM event "pagehide" for "https://www.ptt.cc/bbs/Soft_Job/index1262.html"
1501944973225	Marionette	DEBUG	Received DOM event "unload" for "https://www.ptt.cc/bbs/Soft_Job/index1262.html"
1501944973294	Marionette	DEBUG	Received DOM event "DOMContentLoaded" for "https://www.ptt.cc/bbs/Soft_Job/index1261.html"
1501944973357	Marionette	DEBUG	Received DOM event "pageshow" for "https://www.ptt.cc/bbs/Soft_Job/index1261.html"
1501944973419	Marionette	DEBUG	Received DOM event "beforeunload" for "https://www.ptt.cc/bbs/Soft_Job/index1261.html"
1501944973699	Marionette	DEBUG	Received DOM event "pagehide" for "https://www.ptt.cc/bbs/Soft_Job/index1261.html"
1501944973699	Marionette	DEBUG	Received DOM event "unload" for "https://www.ptt.cc/bbs/Soft_Job/index1261.html"
1501944973790	Marionette	DEBUG	Received DOM event "DOMContentLoaded" for "https://www.ptt.cc/bbs/Soft_Job/index1260.html"
1501944973850	Marionette	DEBUG	Received DOM event "pageshow" for "https://www.ptt.cc/bbs/Soft_Job/index1260.html"
1501944973922	Marionette	DEBUG	Received DOM event "beforeunload" for "https://www.ptt.cc/bbs/Soft_Job/index1260.html"
1501944974210	Marionette	DEBUG	Received DOM event "pagehide" for "https://www.ptt.cc/bbs/Soft_Job/index1260.html"
1501944974211	Marionette	DEBUG	Received DOM event "unload" for "https://www.ptt.cc/bbs/Soft_Job/index1260.html"
1501944974284	Marionette	DEBUG	Received DOM event "DOMContentLoaded" for "https://www.ptt.cc/bbs/Soft_Job/index1259.html"
1501944974371	Marionette	DEBUG	Received DOM event "pageshow" for "https://www.ptt.cc/bbs/Soft_Job/index1259.html"
1501944974442	Marionette	DEBUG	Received DOM event "beforeunload" for "https://www.ptt.cc/bbs/Soft_Job/index1259.html"
1501944974828	Marionette	DEBUG	Received DOM event "pagehide" for "https://www.ptt.cc/bbs/Soft_Job/index1259.html"
1501944974828	Marionette	DEBUG	Received DOM event "unload" for "https://www.ptt.cc/bbs/Soft_Job/index1259.html"
1501944974925	Marionette	DEBUG	Received DOM event "DOMContentLoaded" for "https://www.ptt.cc/bbs/Soft_Job/index1258.html"
1501944975017	Marionette	DEBUG	Received DOM event "pageshow" for "https://www.ptt.cc/bbs/Soft_Job/index1258.html"
1501944975088	Marionette	DEBUG	Received DOM event "beforeunload" for "https://www.ptt.cc/bbs/Soft_Job/index1258.html"
1501944975439	Marionette	DEBUG	Received DOM event "pagehide" for "https://www.ptt.cc/bbs/Soft_Job/index1258.html"
1501944975439	Marionette	DEBUG	Received DOM event "unload" for "https://www.ptt.cc/bbs/Soft_Job/index1258.html"
1501944975550	Marionette	DEBUG	Received DOM event "DOMContentLoaded" for "https://www.ptt.cc/bbs/Soft_Job/index1257.html"
1501944975622	Marionette	DEBUG	Received DOM event "pageshow" for "https://www.ptt.cc/bbs/Soft_Job/index1257.html"
1501944975699	Marionette	DEBUG	Received DOM event "beforeunload" for "https://www.ptt.cc/bbs/Soft_Job/index1257.html"
1501944976053	Marionette	DEBUG	Received DOM event "pagehide" for "https://www.ptt.cc/bbs/Soft_Job/index1257.html"
1501944976053	Marionette	DEBUG	Received DOM event "unload" for "https://www.ptt.cc/bbs/Soft_Job/index1257.html"
1501944976137	Marionette	DEBUG	Received DOM event "DOMContentLoaded" for "https://www.ptt.cc/bbs/Soft_Job/index1256.html"
1501944976198	Marionette	DEBUG	Received DOM event "pageshow" for "https://www.ptt.cc/bbs/Soft_Job/index1256.html"
1501944976272	Marionette	DEBUG	Received DOM event "beforeunload" for "https://www.ptt.cc/bbs/Soft_Job/index1256.html"
1501944976566	Marionette	DEBUG	Received DOM event "pagehide" for "https://www.ptt.cc/bbs/Soft_Job/index1256.html"
1501944976566	Marionette	DEBUG	Received DOM event "unload" for "https://www.ptt.cc/bbs/Soft_Job/index1256.html"
1501944976633	Marionette	DEBUG	Received DOM event "DOMContentLoaded" for "https://www.ptt.cc/bbs/Soft_Job/index1255.html"
1501944976717	Marionette	DEBUG	Received DOM event "pageshow" for "https://www.ptt.cc/bbs/Soft_Job/index1255.html"
1501944976794	Marionette	DEBUG	Received DOM event "beforeunload" for "https://www.ptt.cc/bbs/Soft_Job/index1255.html"
1501944977187	Marionette	DEBUG	Received DOM event "pagehide" for "https://www.ptt.cc/bbs/Soft_Job/index1255.html"
1501944977188	Marionette	DEBUG	Received DOM event "unload" for "https://www.ptt.cc/bbs/Soft_Job/index1255.html"
1501944977261	Marionette	DEBUG	Received DOM event "DOMContentLoaded" for "https://www.ptt.cc/bbs/Soft_Job/index1254.html"
1501944977322	Marionette	DEBUG	Received DOM event "pageshow" for "https://www.ptt.cc/bbs/Soft_Job/index1254.html"
1501944977387	Marionette	DEBUG	Received DOM event "beforeunload" for "https://www.ptt.cc/bbs/Soft_Job/index1254.html"
1501944977691	Marionette	DEBUG	Received DOM event "pagehide" for "https://www.ptt.cc/bbs/Soft_Job/index1254.html"
1501944977691	Marionette	DEBUG	Received DOM event "unload" for "https://www.ptt.cc/bbs/Soft_Job/index1254.html"
1501944977823	Marionette	DEBUG	Received DOM event "DOMContentLoaded" for "https://www.ptt.cc/bbs/Soft_Job/index1253.html"
1501944977877	Marionette	DEBUG	Received DOM event "pageshow" for "https://www.ptt.cc/bbs/Soft_Job/index1253.html"
1501944977945	Marionette	DEBUG	Received DOM event "beforeunload" for "https://www.ptt.cc/bbs/Soft_Job/index1253.html"
1501944978310	Marionette	DEBUG	Received DOM event "pagehide" for "https://www.ptt.cc/bbs/Soft_Job/index1253.html"
1501944978311	Marionette	DEBUG	Received DOM event "unload" for "https://www.ptt.cc/bbs/Soft_Job/index1253.html"
1501944978406	Marionette	DEBUG	Received DOM event "DOMContentLoaded" for "https://www.ptt.cc/bbs/Soft_Job/index1252.html"
1501944978472	Marionette	DEBUG	Received DOM event "pageshow" for "https://www.ptt.cc/bbs/Soft_Job/index1252.html"
1501944978550	Marionette	DEBUG	Received DOM event "beforeunload" for "https://www.ptt.cc/bbs/Soft_Job/index1252.html"
1501944978921	Marionette	DEBUG	Received DOM event "pagehide" for "https://www.ptt.cc/bbs/Soft_Job/index1252.html"
1501944978921	Marionette	DEBUG	Received DOM event "unload" for "https://www.ptt.cc/bbs/Soft_Job/index1252.html"
1501944978992	Marionette	DEBUG	Received DOM event "DOMContentLoaded" for "https://www.ptt.cc/bbs/Soft_Job/index1251.html"
1501944979054	Marionette	DEBUG	Received DOM event "pageshow" for "https://www.ptt.cc/bbs/Soft_Job/index1251.html"
1501944979121	Marionette	DEBUG	Received DOM event "beforeunload" for "https://www.ptt.cc/bbs/Soft_Job/index1251.html"
1501944979299	Marionette	DEBUG	Received DOM event "beforeunload" for "https://www.ptt.cc/bbs/Soft_Job/index1251.html"
1501944979374	Marionette	DEBUG	Received DOM event "pagehide" for "https://www.ptt.cc/bbs/Soft_Job/index1251.html"
1501944979374	Marionette	DEBUG	Received DOM event "unload" for "https://www.ptt.cc/bbs/Soft_Job/index1251.html"
1501944979379	Marionette	DEBUG	Received observer notification "outer-window-destroyed" for "2147483649"
1501944986768	geckodriver	INFO	geckodriver 0.18.0
1501944986772	geckodriver	INFO	Listening on 127.0.0.1:51169
1501944987826	geckodriver::marionette	INFO	Starting browser /Applications/Firefox.app/Contents/MacOS/firefox-bin with args ["-marionette"]
1501944989594	Marionette	INFO	Listening on port 51178
1501944989665	Marionette	WARN	TLS certificate errors will be ignored for this session
1501944989869	Marionette	DEBUG	loaded listener.js
1501944989897	Marionette	DEBUG	Received DOM event "beforeunload" for "about:blank"
2017-08-05 14:56:29.964 plugin-container[1604:57551] *** CFMessagePort: bootstrap_register(): failed 1100 (0x44c) 'Permission denied', port = 0x913b, name = 'com.apple.tsm.portname'
See /usr/include/servers/bootstrap_defs.h for the error codes.
2017-08-05 14:56:29.965 plugin-container[1604:57551] *** CFMessagePort: bootstrap_register(): failed 1100 (0x44c) 'Permission denied', port = 0x9403, name = 'com.apple.CFPasteboardClient'
See /usr/include/servers/bootstrap_defs.h for the error codes.
1501944991162	Marionette	DEBUG	Received DOM event "pagehide" for "about:blank"
1501944991162	Marionette	DEBUG	Received DOM event "unload" for "about:blank"
1501944992156	Marionette	DEBUG	Received DOM event "DOMContentLoaded" for "https://www.ptt.cc/bbs/Soft_Job/index.html"
1501944992437	Marionette	DEBUG	Received DOM event "pageshow" for "https://www.ptt.cc/bbs/Soft_Job/index.html"
1501944994354	Marionette	INFO	Ceased listening
